<svg xmlns="http://www.w3.org/2000/svg" viewBox="0 0 338 33">
  <title>button-fb</title>
  <g id="Layer_2" data-name="Layer 2">
    <g id="buttons">
      <g id="button-fb">
        <polygon points="331.3 23.25 325.54 29 12.46 29 6.7 23.25 9.76 20.19 9.76 12.81 6.7 9.75 12.46 4 325.54 4 331.3 9.75 328.24 12.81 328.24 20.19 331.3 23.25" fill="#1977f3"/>
        <path d="M338,16.5l-3.9-3.9,2.85-2.85L327.2,0H10.8L1.05,9.75,3.9,12.6,0,16.5l3.9,3.9L1.05,23.25,10.8,33H327.2l9.75-9.75L334.1,20.4Zm-3.87,6.75L326.37,31H11.63L3.87,23.25l3.89-3.88V13.63L3.87,9.75,11.63,2H326.37l7.76,7.75-3.89,3.88v5.74Z" fill="#1977f3"/>
      </g>
    </g>
  </g>
</svg>
