<svg xmlns="http://www.w3.org/2000/svg" viewBox="0 0 33.414 31.914">
  <title>disconnected-icon</title>
  <g id="Layer_2" data-name="Layer 2">
    <g id="other_icons" data-name="other icons">
      <g id="disconnected-icon">
        <g>
          <path d="M29.305,7.67l-5.218,5.214-3.543-3.54,5.128-5.123a1.758,1.758,0,0,0,.25-2.267A1.672,1.672,0,0,0,23.4,1.77L18.182,6.984,16.645,5.449a1.166,1.166,0,0,0-1.65,0l-2.7,2.7a9.173,9.173,0,0,0,0,12.98h0a9.192,9.192,0,0,0,12.991,0l2.7-2.7a1.164,1.164,0,0,0,0-1.647l-1.538-1.536,5.128-5.124a1.758,1.758,0,0,0,.25-2.267A1.673,1.673,0,0,0,29.305,7.67Z" fill="#c9a9a3"/>
          <path d="M8.382,22.046,5.888,24.538a1.761,1.761,0,0,0,0,2.492h0a1.765,1.765,0,0,0,2.494,0l2.5-2.492Z" fill="#c9a9a3"/>
        </g>
        <line x1="1.414" y1="3" x2="28.914" y2="30.5" fill="#c9a9a3" stroke="#2d1922" stroke-miterlimit="10" stroke-width="4"/>
        <line x1="6.414" y1="2" x2="31.414" y2="27" fill="#c9a9a3" stroke="#c9a9a3" stroke-linecap="round" stroke-miterlimit="10" stroke-width="4"/>
      </g>
    </g>
  </g>
</svg>
