<svg xmlns="http://www.w3.org/2000/svg" viewBox="0 0 27.5 28">
  <title>exit-icon</title>
  <g id="Layer_2" data-name="Layer 2">
    <g id="windows">
      <g id="exit-icon">
        <path d="M24.5,0H12A3,3,0,0,0,9,3V8h2V3a1,1,0,0,1,1-1H24.5a1,1,0,0,1,1,1V19a1,1,0,0,1-1,1H12a1,1,0,0,1-1-1V14H9v5a3,3,0,0,0,3,3H24.5a3,3,0,0,0,3-3V3A3,3,0,0,0,24.5,0Z" fill="#2d1922"/>
        <path d="M17.611,27.833l7.778-5.911A4.085,4.085,0,0,0,26.5,19.016V3.041c0-1.138-.5-1.683-1.111-1.216L17.611,7.736A4.085,4.085,0,0,0,16.5,10.642V26.617C16.5,27.755,17,28.3,17.611,27.833Z" fill="#2d1922"/>
        <g>
          <line x1="13" y1="11" x2="5.741" y2="11" fill="none" stroke="#2d1922" stroke-linecap="round" stroke-miterlimit="10" stroke-width="2"/>
          <polygon points="6.908 7.011 0 11 6.908 14.989 6.908 7.011" fill="#2d1922"/>
        </g>
      </g>
    </g>
  </g>
</svg>
