<svg xmlns="http://www.w3.org/2000/svg" viewBox="0 0 58.814 57.823">
  <title>player-icon-1-bg</title>
  <g id="Layer_2" data-name="Layer 2">
    <g id="player_icons" data-name="player icons">
      <g id="player-icon-1-bg">
        <g id="windows">
          <g id="player-icon-1">
            <path d="M53.146,57.823H5.666a5.66,5.66,0,0,1-5.51-6.98,30.28,30.28,0,0,1,16.06-19.9,19.81,19.81,0,0,0,26.38,0,30.274,30.274,0,0,1,16.06,19.9,5.661,5.661,0,0,1-5.51,6.98Z" fill="#2d1922"/>
            <path d="M45.326,15.983a15.961,15.961,0,1,1-7.092-13.29A15.981,15.981,0,0,1,45.326,15.983Z" fill="#2d1922"/>
          </g>
        </g>
      </g>
    </g>
  </g>
</svg>
