<svg xmlns="http://www.w3.org/2000/svg" viewBox="0 0 41 55">
  <title>show-details-primary</title>
  <g id="Layer_2" data-name="Layer 2">
    <g id="game-over-screen">
      <g id="show-details-primary">
        <path d="M21.44,30a7.48,7.48,0,0,0,0,14.96,7.329,7.329,0,0,0,5.17-2.12,6.4,6.4,0,0,0,.65-.72A7.474,7.474,0,0,0,21.44,30Z" fill="#f7a01f"/>
        <path d="M28,0H4A4,4,0,0,0,0,4V51a4,4,0,0,0,4,4H36.69L34.7,53l-6.35-6.38a11.315,11.315,0,0,1-6.91,2.34,11.484,11.484,0,1,1,9.62-5.28l7.86,7.88,1.5,1.51A3.956,3.956,0,0,0,41,51V12ZM9,26H6a2,2,0,0,1,0-4H9a2,2,0,0,1,0,4Zm10-8H6a2,2,0,0,1,0-4H19a2,2,0,0,1,0,4Zm0-8H6A2,2,0,0,1,6,6H19a2,2,0,0,1,0,4Zm12.21,2.92A4.21,4.21,0,0,1,27,8.71V2h.22L39,12.88v.04Z" fill="#f7a01f"/>
      </g>
    </g>
  </g>
</svg>
