<svg xmlns="http://www.w3.org/2000/svg" viewBox="0 0 188.35 37">
  <title>small-title-team-red</title>
  <g id="Layer_2" data-name="Layer 2">
    <g id="windows">
      <g id="small-title-team-red">
        <path d="M169.943,0H18.5L10.25,8.25,0,18.5,10.25,28.75,18.5,37H169.943l8.25-8.25L188.35,18.593,178.11,8.25Z" fill="#e36f51"/>
      </g>
    </g>
  </g>
</svg>
