<svg xmlns="http://www.w3.org/2000/svg" viewBox="0 0 37.853 36">
  <title>star-outline-background</title>
  <g id="Layer_2" data-name="Layer 2">
    <g id="stars">
      <g id="star-outline-background">
        <path d="M18.926,9.038l2.262,4.583.931,1.885,2.081.3,5.057.735L25.6,20.111l-1.505,1.468.355,2.072.864,5.037L20.788,26.31l-1.862-.979-1.861.979-4.523,2.378.864-5.037.355-2.072-1.506-1.468L8.6,16.544l5.057-.735,2.081-.3.931-1.885,2.261-4.583m0-9.038L13.078,11.85,0,13.751l9.463,9.224L7.229,36l11.7-6.15L30.623,36,28.389,22.975l9.464-9.224-13.078-1.9L18.926,0Z" fill="#2d1922"/>
      </g>
    </g>
  </g>
</svg>
