<svg xmlns="http://www.w3.org/2000/svg" viewBox="0 0 92 66.225">
  <title>team-icon-busy-team-blue</title>
  <g id="Layer_2" data-name="Layer 2">
    <g id="team-icons">
      <g id="team-icon-busy-team-blue">
        <path d="M90,33.113A44,44,0,0,1,77.113,64.225" fill="none" stroke="#72aac2" stroke-linecap="round" stroke-miterlimit="10" stroke-width="4"/>
        <path d="M2,33.113A44,44,0,0,1,14.887,2" fill="none" stroke="#72aac2" stroke-linecap="round" stroke-miterlimit="10" stroke-width="4"/>
      </g>
    </g>
  </g>
</svg>
