<svg xmlns="http://www.w3.org/2000/svg" viewBox="0 0 50 50">
  <title>window-corner-team-blue</title>
  <g id="Layer_2" data-name="Layer 2">
    <g id="windows">
      <polygon id="window-corner-team-blue" points="50 0 50 4 39.05 4 4 39.05 4 50 0 50 0 37.4 9.4 28 9.4 9 28.4 9 37.4 0 50 0" fill="#72aac2"/>
    </g>
  </g>
</svg>
